[
	{
		"id": 190906,
		"title": "Шуруповерт",
		"price": 2700,
		"image": "https://static.dnipro-m.ua/cache/products/5591/catalog_origin_190906.jpg",
		"color": "black"
	},
	{
		"id": 217605,
		"title": "Бензопила",
		"price": 5200,
		"image": "https://static.dnipro-m.ua/cache/products/6946/catalog_origin_217605.jpg",
		"color": "black-orange"
	},
	{
		"id": 195568,
		"title": "Перфоратор бочковий",
		"price": 4300,
		"image": "https://static.dnipro-m.ua/cache/products/5098/catalog_origin_195568.jpg",
		"color": "black"
	},
	{
		"id": 182118,
		"title": "Шліфмашина кутова",
		"price": 1400,
		"image": "https://static.dnipro-m.ua/cache/products/992/catalog_origin_182118.jpg",
		"color": "black"
	},
	{
		"id": 187593,
		"title": "Лобзик електричний",
		"price": 2200,
		"image": "https://static.dnipro-m.ua/cache/products/2258/catalog_origin_187593.jpg",
		"color": "black"
	},
	{
		"id": 170655,
		"title": "Дриль ударний",
		"price": 2050,
		"image": "https://static.dnipro-m.ua/cache/products/1219/catalog_origin_170655.jpg",
		"color": "black"
	},
	{
		"id": 214669,
		"title": "Циркулярна пила",
		"price": 2450,
		"image": "https://static.dnipro-m.ua/cache/products/1240/catalog_origin_214669.jpg",
		"color": "black"
	},
	{
		"id": 185336,
		"title": "Фен промисловий",
		"price": 3250,
		"image": "https://static.dnipro-m.ua/cache/products/4243/catalog_origin_185336.jpg",
		"color": "black"
	},
	{
		"id": 215660,
		"title": "Фарбопульт електричний",
		"price": 2700,
		"image": "https://static.dnipro-m.ua/cache/products/5291/catalog_origin_215660.jpg",
		"color": "black"
	},
	{
		"id": 177748,
		"title": "Гайковерт пневматичний",
		"price": 3690,
		"image": "https://static.dnipro-m.ua/cache/products/4487/catalog_origin_177748.jpg",
		"color": "black"
	}
]